index
…
gapminder <- readr::read_csv("https://raw.githubusercontent.com/OHI-Science/data-science-training/master/data/gapminder.csv")

## Parsed with column specification:
## cols(
##   country = col_character(),
##   year = col_integer(),
##   pop = col_double(),
##   continent = col_character(),
##   lifeExp = col_double(),
##   gdpPercap = col_double()
## )

gapminder

## # A tibble: 1,704 x 6
##        country  year      pop continent lifeExp gdpPercap
##          <chr> <int>    <dbl>     <chr>   <dbl>     <dbl>
##  1 Afghanistan  1952  8425333      Asia  28.801  779.4453
##  2 Afghanistan  1957  9240934      Asia  30.332  820.8530
##  3 Afghanistan  1962 10267083      Asia  31.997  853.1007
##  4 Afghanistan  1967 11537966      Asia  34.020  836.1971
##  5 Afghanistan  1972 13079460      Asia  36.088  739.9811
##  6 Afghanistan  1977 14880372      Asia  38.438  786.1134
##  7 Afghanistan  1982 12881816      Asia  39.854  978.0114
##  8 Afghanistan  1987 13867957      Asia  40.822  852.3959
##  9 Afghanistan  1992 16317921      Asia  41.674  649.3414
## 10 Afghanistan  1997 22227415      Asia  41.763  635.3414
## # ... with 1,694 more rows
…
filter(gapminder, lifeExp < 60)

## # A tibble: 827 x 6
##        country  year      pop continent lifeExp gdpPercap
##          <chr> <int>    <dbl>     <chr>   <dbl>     <dbl>
##  1 Afghanistan  1952  8425333      Asia  28.801  779.4453
##  2 Afghanistan  1957  9240934      Asia  30.332  820.8530
##  3 Afghanistan  1962 10267083      Asia  31.997  853.1007
##  4 Afghanistan  1967 11537966      Asia  34.020  836.1971
##  5 Afghanistan  1972 13079460      Asia  36.088  739.9811
##  6 Afghanistan  1977 14880372      Asia  38.438  786.1134
##  7 Afghanistan  1982 12881816      Asia  39.854  978.0114
##  8 Afghanistan  1987 13867957      Asia  40.822  852.3959
##  9 Afghanistan  1992 16317921      Asia  41.674  649.3414
## 10 Afghanistan  1997 22227415      Asia  41.763  635.3414
## # ... with 817 more rows
…
tail(gapminder) # show the last 6 rows of data

## # A tibble: 6 x 6
##    country  year      pop continent lifeExp gdpPercap
##      <chr> <int>    <dbl>     <chr>   <dbl>     <dbl>
## 1 Zimbabwe  1982  7636524    Africa  60.363  788.8550
## 2 Zimbabwe  1987  9216418    Africa  62.351  706.1573
## 3 Zimbabwe  1992 10704340    Africa  60.377  693.4208
## 4 Zimbabwe  1997 11404948    Africa  46.809  792.4500
## 5 Zimbabwe  2002 11926563    Africa  39.989  672.0386
## 6 Zimbabwe  2007 12311143    Africa  43.487  469.7093

head(gapminder, 30) # say how many rows

## # A tibble: 30 x 6
##        country  year      pop continent lifeExp gdpPercap
##          <chr> <int>    <dbl>     <chr>   <dbl>     <dbl>
##  1 Afghanistan  1952  8425333      Asia  28.801  779.4453
##  2 Afghanistan  1957  9240934      Asia  30.332  820.8530
##  3 Afghanistan  1962 10267083      Asia  31.997  853.1007
##  4 Afghanistan  1967 11537966      Asia  34.020  836.1971
##  5 Afghanistan  1972 13079460      Asia  36.088  739.9811
##  6 Afghanistan  1977 14880372      Asia  38.438  786.1134
##  7 Afghanistan  1982 12881816      Asia  39.854  978.0114
##  8 Afghanistan  1987 13867957      Asia  40.822  852.3959
##  9 Afghanistan  1992 16317921      Asia  41.674  649.3414
## 10 Afghanistan  1997 22227415      Asia  41.763  635.3414
## # ... with 20 more rows
…
## a few more things with filter
gapminder %>% 
  filter(country == "Mexico",
         year == 2002)

## # A tibble: 1 x 6
##   country  year       pop continent lifeExp gdpPercap
##     <chr> <int>     <dbl>     <chr>   <dbl>     <dbl>
## 1  Mexico  2002 102479927  Americas  74.902  10742.44

## 'mutate()' to add columns
gapminder %>% 
  mutate(gdp = pop * gdpPercap)

## # A tibble: 1,704 x 7
##        country  year      pop continent lifeExp gdpPercap         gdp
##          <chr> <int>    <dbl>     <chr>   <dbl>     <dbl>       <dbl>
##  1 Afghanistan  1952  8425333      Asia  28.801  779.4453  6567086330
##  2 Afghanistan  1957  9240934      Asia  30.332  820.8530  7585448670
##  3 Afghanistan  1962 10267083      Asia  31.997  853.1007  8758855797
##  4 Afghanistan  1967 11537966      Asia  34.020  836.1971  9648014150
##  5 Afghanistan  1972 13079460      Asia  36.088  739.9811  9678553274
##  6 Afghanistan  1977 14880372      Asia  38.438  786.1134 11697659231
##  7 Afghanistan  1982 12881816      Asia  39.854  978.0114 12598563401
##  8 Afghanistan  1987 13867957      Asia  40.822  852.3959 11820990309
##  9 Afghanistan  1992 16317921      Asia  41.674  649.3414 10595901589
## 10 Afghanistan  1997 22227415      Asia  41.763  635.3414 14121995875
## # ... with 1,694 more rows
…
## Exercise
gapminder %>% 
  filter(country %in% c("Egypt", "Vietnam")) %>% 
  select(country, gdpPercap) %>% 
  mutate(max_gdpPercap = max(gdpPercap))

## # A tibble: 24 x 3
##    country gdpPercap max_gdpPercap
##      <chr>     <dbl>         <dbl>
##  1   Egypt  1418.822      5581.181
##  2   Egypt  1458.915      5581.181
##  3   Egypt  1693.336      5581.181
##  4   Egypt  1814.881      5581.181
##  5   Egypt  2024.008      5581.181
##  6   Egypt  2785.494      5581.181
##  7   Egypt  3503.730      5581.181
##  8   Egypt  3885.461      5581.181
##  9   Egypt  3794.755      5581.181
## 10   Egypt  4173.182      5581.181
## # ... with 14 more rows
…
## # A tibble: 2 x 2
##   country max_gdpPercap
##     <chr>         <dbl>
## 1   Egypt      5581.181
## 2 Vietnam      2441.576

gapminder %>% 
  group_by(country) %>% 
  summarize(max_gdpPercap = max(gdpPercap))

## # A tibble: 142 x 2
##        country max_gdpPercap
##          <chr>         <dbl>
##  1 Afghanistan      978.0114
##  2     Albania     5937.0295
##  3     Algeria     6223.3675
##  4      Angola     5522.7764
##  5   Argentina    12779.3796
##  6   Australia    34435.3674
##  7     Austria    36126.4927
##  8     Bahrain    29796.0483
##  9  Bangladesh     1391.2538
## 10     Belgium    33692.6051
## # ... with 132 more rows

## let's keep the year associated with that max_gdpPercap
gapminder %>% 
  group_by(country) %>% 
  filter(gdpPercap == max(gdpPercap))

## # A tibble: 142 x 6
## # Groups:   country [142]
##        country  year       pop continent lifeExp  gdpPercap
##          <chr> <int>     <dbl>     <chr>   <dbl>      <dbl>
##  1 Afghanistan  1982  12881816      Asia  39.854   978.0114
##  2     Albania  2007   3600523    Europe  76.423  5937.0295
##  3     Algeria  2007  33333216    Africa  72.301  6223.3675
##  4      Angola  1967   5247469    Africa  35.985  5522.7764
##  5   Argentina  2007  40301927  Americas  75.320 12779.3796
##  6   Australia  2007  20434176   Oceania  81.235 34435.3674
##  7     Austria  2007   8199783    Europe  79.829 36126.4927
##  8     Bahrain  2007    708573      Asia  75.635 29796.0483
##  9  Bangladesh  2007 150448339      Asia  64.062  1391.2538
## 10     Belgium  2007  10392226    Europe  79.441 33692.6051
## # ... with 132 more rows
